{
    "current_page": 1,
    "data": [
        {
            "id": 1,
            "created_at": "2016-10-20 11:05:00",
            "updated_at": "2016-10-20 11:06:00",
            "key": "attribute",
            "value": {
                "name": "color",
                "value": "#000"
            },
            "is_public": true
        },
        {
            "id": 2,
            "created_at": "2016-10-20 11:06:00",
            "updated_at": "2016-10-20 11:07:00",
            "key": "settings",
            "value": {
                "timezone": "australia"
            },
            "is_public": true
        }
    ],
    "first_page_url": "http:\/\/localhost\/settings?page=1",
    "from": 1,
    "last_page": 2,
    "last_page_url": "http:\/\/localhost\/settings?page=2",
    "next_page_url": "http:\/\/localhost\/settings?page=2",
    "path": "http:\/\/localhost\/settings",
    "per_page": 2,
    "prev_page_url": null,
    "to": 2,
    "total": 4
}