{
    "current_page": 1,
    "data": [
        {
            "id": 1,
            "created_at": "2016-10-20 11:05:00",
            "updated_at": "2016-10-20 11:05:00",
            "deleted_at": null,
            "link": "http:\/\/localhost\/test.jpg",
            "name": "Product main photo"
        },
        {
            "id": 2,
            "created_at": "2016-10-20 11:05:00",
            "updated_at": "2016-10-20 11:05:00",
            "deleted_at": null,
            "link": "http:\/\/localhost\/test1.jpg",
            "name": "Category Photo photo"
        }
    ],
    "first_page_url": "http:\/\/localhost\/media?page=1",
    "from": 1,
    "last_page": 2,
    "last_page_url": "http:\/\/localhost\/media?page=2",
    "next_page_url": "http:\/\/localhost\/media?page=2",
    "path": "http:\/\/localhost\/media",
    "per_page": 2,
    "prev_page_url": null,
    "to": 2,
    "total": 4
}