{
  "current_page": 1,
  "data": [
    {
      "id": 2,
      "created_at": "2016-10-20 11:05:00",
      "updated_at": "2016-10-20 11:05:00",
      "key": "shirt_size",
      "value": [
        "(Male) 46",
        "(Male) 45",
        "(Male) 44",
        "(Male) 43",
        "(Male) 42",
        "(Male) 41",
        "(Male) 40",
        "(Male) 39",
        "(Male) 38",
        "(Male) 37",
        "(Female) 16",
        "(Female) 14",
        "(Female) 12",
        "(Female) 10",
        "(Female) 8",
        "(Female) 6",
        "(Female) 4"
      ]
    },
    {
      "id": 1,
      "created_at": "2016-10-20 11:05:00",
      "updated_at": "2016-10-20 11:05:00",
      "key": "transport",
      "value": [
        {
          "id": 1,
          "needLicense": 1,
          "name": "Car and Motorbike"
        },
        {
          "id": 2,
          "needLicense": 1,
          "name": "Motorbike"
        },
        {
          "id": 3,
          "needLicense": 1,
          "name": "Car"
        },
        {
          "id": 4,
          "needLicense": 0,
          "name": "None"
        }
      ]
    }
  ],
  "first_page_url": "http:\/\/dev.api.navarravenues.ronasit.com\/options?page=1",
  "from": 1,
  "last_page": 3,
  "last_page_url": "http:\/\/dev.api.navarravenues.ronasit.com\/options?page=3",
  "next_page_url": "http:\/\/dev.api.navarravenues.ronasit.com\/options?page=2",
  "path": "http:\/\/dev.api.navarravenues.ronasit.com\/options",
  "per_page": 2,
  "prev_page_url": null,
  "to": 2,
  "total": 6
}